<?xml version="1.0" encoding="UTF-8" standalone="no"?>
<svg
   xmlns:dc="http://purl.org/dc/elements/1.1/"
   xmlns:cc="http://creativecommons.org/ns#"
   xmlns:rdf="http://www.w3.org/1999/02/22-rdf-syntax-ns#"
   xmlns:svg="http://www.w3.org/2000/svg"
   xmlns="http://www.w3.org/2000/svg"
   xmlns:sodipodi="http://sodipodi.sourceforge.net/DTD/sodipodi-0.dtd"
   xmlns:inkscape="http://www.inkscape.org/namespaces/inkscape"
   width="210mm"
   height="297mm"
   viewBox="0 0 210 297"
   version="1.1"
   id="svg8"
   inkscape:version="1.0.1 (c497b03c, 2020-09-10)"
   sodipodi:docname="babal-icon.svg"
   inkscape:export-filename="/Users/christian.mauduit/Home/_/babal/media/babal-icon-2048x2048.png"
   inkscape:export-xdpi="416.14999"
   inkscape:export-ydpi="416.14999">
  <defs
     id="defs2" />
  <sodipodi:namedview
     id="base"
     pagecolor="#ffffff"
     bordercolor="#666666"
     borderopacity="1.0"
     inkscape:pageopacity="0.0"
     inkscape:pageshadow="2"
     inkscape:zoom="0.35"
     inkscape:cx="451.42858"
     inkscape:cy="1017.1429"
     inkscape:document-units="mm"
     inkscape:current-layer="layer1"
     inkscape:document-rotation="0"
     showgrid="false"
     inkscape:window-width="1252"
     inkscape:window-height="812"
     inkscape:window-x="0"
     inkscape:window-y="23"
     inkscape:window-maximized="0" />
  <metadata
     id="metadata5">
    <rdf:RDF>
      <cc:Work
         rdf:about="">
        <dc:format>image/svg+xml</dc:format>
        <dc:type
           rdf:resource="http://purl.org/dc/dcmitype/StillImage" />
        <dc:title />
      </cc:Work>
    </rdf:RDF>
  </metadata>
  <g
     inkscape:label="Layer 1"
     inkscape:groupmode="layer"
     id="layer1">
    <rect
       style="fill:#000000;fill-opacity:1;stroke-width:0.295716"
       id="rect839"
       width="125"
       height="125"
       x="22.678572"
       y="59.720242" />
    <circle
       style="fill:#29d6d6;fill-opacity:1;stroke-width:0.264583"
       id="path833"
       cx="89.58036"
       cy="127"
       r="50" />
    <g
       aria-label="B"
       id="text837"
       style="font-style:normal;font-weight:normal;font-size:10.5833px;line-height:1.25;font-family:sans-serif;white-space:pre;fill:#d629d6;fill-opacity:1;stroke:none;stroke-width:0.264583">
      <path
         d="m 117.58759,89.297 q 0,8.199312 -4.52168,13.56504 -4.46139,5.30544 -13.685615,8.01844 l -0.120578,0.48232 q 7.294973,2.11011 11.032903,6.08919 3.79821,3.97908 3.79821,11.21377 0,14.16793 -11.63579,22.12608 Q 90.879537,158.75 69.657787,158.75 H 30.771341 L 51.510779,68.979586 H 84.24774 q 16.21776,0 24.7788,5.365726 8.56105,5.305438 8.56105,14.951688 z m -24.477358,3.677633 q 0,-3.979078 -3.135031,-5.727461 Q 86.84017,85.4385 81.293576,85.4385 H 70.863568 l -4.401101,18.99105 h 10.550585 q 7.596422,0 11.816657,-2.89387 4.280523,-2.954164 4.280523,-8.561047 z m -2.59243,36.294017 q 0,-4.9437 -3.737921,-7.11411 -3.737922,-2.2307 -11.756368,-2.2307 H 62.905412 l -5.18486,22.36725 h 11.696079 q 10.128562,0 15.614867,-3.3159 5.486304,-3.3159 5.486304,-9.70654 z"
         style="font-style:italic;font-variant:normal;font-weight:bold;font-stretch:normal;font-size:123.472px;font-family:sans-serif;-inkscape-font-specification:'sans-serif, Bold Italic';font-variant-ligatures:normal;font-variant-caps:normal;font-variant-numeric:normal;font-variant-east-asian:normal;fill:#d629d6;fill-opacity:1;stroke-width:0.264583"
         id="path902" />
    </g>
    <g
       aria-label="^"
       id="text846"
       style="font-style:normal;font-variant:normal;font-weight:bold;font-stretch:normal;font-size:70.5556px;line-height:1.25;font-family:sans-serif;-inkscape-font-specification:'sans-serif, Bold';font-variant-ligatures:normal;font-variant-caps:normal;font-variant-numeric:normal;font-variant-east-asian:normal;fill:#ffffff;fill-opacity:1;stroke:none;stroke-width:0.264583">
      <path
         d="m 142.6457,119.17997 h -11.02431 l -13.36698,-19.533702 -12.299,19.602602 H 95 l 18.94804,-29.248876 h 8.57829 z"
         style="font-style:normal;font-variant:normal;font-weight:bold;font-stretch:normal;font-size:70.5556px;font-family:sans-serif;-inkscape-font-specification:'sans-serif, Bold';font-variant-ligatures:normal;font-variant-caps:normal;font-variant-numeric:normal;font-variant-east-asian:normal;fill:#ffffff;fill-opacity:1;stroke-width:0.264583"
         id="path908" />
    </g>
    <g
       aria-label="^"
       id="text846-1"
       style="font-style:normal;font-variant:normal;font-weight:bold;font-stretch:normal;font-size:70.5556px;line-height:1.25;font-family:sans-serif;-inkscape-font-specification:'sans-serif, Bold';font-variant-ligatures:normal;font-variant-caps:normal;font-variant-numeric:normal;font-variant-east-asian:normal;fill:#ffffff;fill-opacity:1;stroke:none;stroke-width:0.264583">
      <path
         d="m 142.6457,139.17997 h -11.02431 l -13.36698,-19.5337 -12.299,19.6026 H 95 l 18.94804,-29.24888 h 8.57829 z"
         style="font-style:normal;font-variant:normal;font-weight:bold;font-stretch:normal;font-size:70.5556px;font-family:sans-serif;-inkscape-font-specification:'sans-serif, Bold';font-variant-ligatures:normal;font-variant-caps:normal;font-variant-numeric:normal;font-variant-east-asian:normal;fill:#ffffff;fill-opacity:1;stroke-width:0.264583"
         id="path905" />
    </g>
    <g
       aria-label="^"
       id="text846-7"
       style="font-style:normal;font-variant:normal;font-weight:bold;font-stretch:normal;font-size:70.5556px;line-height:1.25;font-family:sans-serif;-inkscape-font-specification:'sans-serif, Bold';font-variant-ligatures:normal;font-variant-caps:normal;font-variant-numeric:normal;font-variant-east-asian:normal;fill:#ffffff;fill-opacity:1;stroke:none;stroke-width:0.264583">
      <path
         d="m 142.6457,159.17997 h -11.02431 l -13.36698,-19.5337 -12.299,19.6026 H 95 l 18.94804,-29.24888 h 8.57829 z"
         style="font-style:normal;font-variant:normal;font-weight:bold;font-stretch:normal;font-size:70.5556px;font-family:sans-serif;-inkscape-font-specification:'sans-serif, Bold';font-variant-ligatures:normal;font-variant-caps:normal;font-variant-numeric:normal;font-variant-east-asian:normal;fill:#ffffff;fill-opacity:1;stroke-width:0.264583"
         id="path911" />
    </g>
  </g>
</svg>
