[gd_scene load_steps=4 format=2]

[ext_resource path="res://fonts/MenuFont.tres" type="DynamicFont" id=1]
[ext_resource path="res://scripts/ScoresList.gd" type="Script" id=2]
[ext_resource path="res://fonts/TitleFont.tres" type="DynamicFont" id=3]

[node name="ScoresList" type="VBoxContainer"]
anchor_right = 1.0
anchor_bottom = 1.0
script = ExtResource( 2 )
__meta__ = {
"_edit_use_anchors_": false
}

[node name="ScoreTitle" type="Label" parent="."]
margin_right = 960.0
margin_bottom = 135.0
custom_fonts/font = ExtResource( 3 )
text = "High Scores"
align = 1
valign = 1

[node name="ScoreLabel1" type="Label" parent="."]
margin_top = 139.0
margin_right = 960.0
margin_bottom = 184.0
custom_fonts/font = ExtResource( 1 )
text = "Score 1"
align = 1
valign = 1

[node name="ScoreLabel2" type="Label" parent="."]
margin_top = 188.0
margin_right = 960.0
margin_bottom = 233.0
custom_fonts/font = ExtResource( 1 )
text = "Score 2"
align = 1
valign = 1

[node name="ScoreLabel3" type="Label" parent="."]
margin_top = 237.0
margin_right = 960.0
margin_bottom = 282.0
custom_fonts/font = ExtResource( 1 )
text = "Score 3"
align = 1
valign = 1

[node name="ScoreLabel4" type="Label" parent="."]
margin_top = 286.0
margin_right = 960.0
margin_bottom = 331.0
custom_fonts/font = ExtResource( 1 )
text = "Score 4"
align = 1
valign = 1

[node name="ScoreLabel5" type="Label" parent="."]
margin_top = 335.0
margin_right = 960.0
margin_bottom = 380.0
custom_fonts/font = ExtResource( 1 )
text = "Score 5"
align = 1
valign = 1
