[gd_scene load_steps=3 format=2]

[ext_resource path="res://materials/StarsSky.tres" type="Material" id=1]
[ext_resource path="res://scripts/StarsSky.gd" type="Script" id=2]

[node name="StarsSky" type="ColorRect"]
material = ExtResource( 1 )
margin_right = 962.0
margin_bottom = 624.0
script = ExtResource( 2 )
__meta__ = {
"_edit_use_anchors_": false
}
