<?xml version="1.0" encoding="UTF-8" standalone="no"?>
<svg
   xmlns:dc="http://purl.org/dc/elements/1.1/"
   xmlns:cc="http://creativecommons.org/ns#"
   xmlns:rdf="http://www.w3.org/1999/02/22-rdf-syntax-ns#"
   xmlns:svg="http://www.w3.org/2000/svg"
   xmlns="http://www.w3.org/2000/svg"
   xmlns:sodipodi="http://sodipodi.sourceforge.net/DTD/sodipodi-0.dtd"
   xmlns:inkscape="http://www.inkscape.org/namespaces/inkscape"
   width="256"
   height="256"
   viewBox="0 0 67.733332 67.733333"
   version="1.1"
   id="svg8"
   inkscape:version="1.0.1 (c497b03c, 2020-09-10)"
   sodipodi:docname="homepage-button.svg"
   inkscape:export-filename="/Users/christian.mauduit/Home/_/babal/media/babal-icon-2048x2048.png"
   inkscape:export-xdpi="416.14999"
   inkscape:export-ydpi="416.14999">
  <defs
     id="defs2" />
  <sodipodi:namedview
     id="base"
     pagecolor="#ffffff"
     bordercolor="#666666"
     borderopacity="1.0"
     inkscape:pageopacity="0.0"
     inkscape:pageshadow="2"
     inkscape:zoom="0.60742188"
     inkscape:cx="128"
     inkscape:cy="128"
     inkscape:document-units="mm"
     inkscape:current-layer="g2438"
     inkscape:document-rotation="0"
     showgrid="false"
     inkscape:window-width="1252"
     inkscape:window-height="812"
     inkscape:window-x="0"
     inkscape:window-y="66"
     inkscape:window-maximized="0"
     units="px"
     fit-margin-top="0"
     fit-margin-left="0"
     fit-margin-right="0"
     fit-margin-bottom="0"
     inkscape:pagecheckerboard="true" />
  <metadata
     id="metadata5">
    <rdf:RDF>
      <cc:Work
         rdf:about="">
        <dc:format>image/svg+xml</dc:format>
        <dc:type
           rdf:resource="http://purl.org/dc/dcmitype/StillImage" />
        <dc:title></dc:title>
      </cc:Work>
    </rdf:RDF>
  </metadata>
  <g
     inkscape:label="Layer 1"
     inkscape:groupmode="layer"
     id="layer1"
     transform="translate(-56.373788,-93.700057)">
    <text
       xml:space="preserve"
       style="font-style:normal;font-weight:normal;font-size:10.5833px;line-height:1.25;font-family:sans-serif;fill:#000000;fill-opacity:1;stroke:none;stroke-width:0.264583"
       x="79.895332"
       y="127.24004"
       id="text1113"><tspan
         sodipodi:role="line"
         id="tspan1111"
         x="79.895332"
         y="127.24004"
         style="stroke-width:0.264583" /></text>
    <g
       transform="matrix(0.00496094,0,0,-0.00496094,58.490455,159.31676)"
       fill="#000000"
       stroke="none"
       id="g931">
      <g
         id="g2438"
         transform="matrix(20.833535,0,0,-24.305543,1279.9576,12373.334)">
        <path
           d="M 220.11374,18.551638 C 207.48126,28.744855 156.59295,69.762363 107.09333,109.679 57.54891,149.55487 10.109904,187.84059 1.598656,194.69044 c -8.5112476,6.84984 -20.606178,16.59455 -26.877624,21.60962 -6.271446,5.05583 -12.363707,9.98935 -13.528404,11.00867 l -2.15021,1.83478 14.782693,15.08596 c 8.108083,8.2769 15.05147,15.04519 15.365042,15.04519 0.358368,-0.0408 27.012012,-21.24266 59.265161,-47.13344 C 217.69475,76.286022 245.02034,54.431764 245.33391,54.513309 c 0.17918,0.08155 21.05414,16.839196 46.4087,37.266404 25.30976,20.427207 82.5143,66.500547 127.04157,102.421447 44.52726,35.9209 81.17042,65.31814 81.3944,65.31814 0.22398,0 0.53755,-0.20386 0.67194,-0.40773 0.22398,-0.32618 0.49276,-0.28541 0.94072,0.0408 0.85112,0.6116 -0.44796,1.83478 15.18586,-14.31127 6.85379,-7.05371 13.12524,-13.49582 13.97636,-14.31128 l 1.52307,-1.46782 -37.53909,-30.13116 C 474.28647,182.33626 425.77236,143.35739 387.06858,112.32924 348.4096,81.260312 301.10498,43.30077 281.93227,27.929398 L 247.17055,-1.785e-5 h -2.01582 -2.01583 z"
           id="path3198"
           style="fill:#29d6d6;stroke:none;stroke-width:0.0427371;fill-opacity:1" />
        <path
           d="m 214.69342,112.28847 c -16.30576,13.12886 -61.37058,49.45749 -100.11915,80.68951 l -70.419376,56.7966 0.08959,117.09969 0.134388,117.09968 0.985513,1.67169 c 0.537553,0.93777 1.836638,2.36482 2.866947,3.13951 3.718071,2.93564 -1.075105,2.73178 69.926618,2.73178 h 63.96875 l 0.0896,-51.90386 c 0.13439,-51.61846 0.13439,-51.86309 1.0751,-53.69787 1.1647,-2.36483 3.4045,-4.40347 6.00267,-5.46357 2.01583,-0.85623 2.3294,-0.85623 54.83036,-0.97855 58.41403,-0.12232 55.90545,-0.20386 59.22036,2.44638 2.3294,1.87555 3.62848,3.95496 4.16603,6.64597 0.35837,1.63092 0.49276,18.51089 0.49276,52.67855 v 50.27295 l 66.47732,-0.0815 66.52212,-0.12231 1.34388,-1.18242 c 0.76154,-0.65236 2.01583,-2.56869 2.82215,-4.28115 l 1.47827,-3.09874 0.0896,-116.61041 0.0896,-116.6104 -100.34313,-80.52642 C 289.5924,123.33791 245.73707,88.436337 245.24432,88.436337 c -0.58235,-0.04077 -11.06462,8.154574 -30.5509,23.852133 z"
           id="path3200"
           style="fill:#d629d6;stroke:none;stroke-width:0.0427371;fill-opacity:1" />
      </g>
      <g
         id="g2440"
         transform="matrix(19.392285,0,0,-17.606279,-16782.467,35465.346)" />
      <g
         id="g2442"
         transform="matrix(19.392285,0,0,-17.606279,-16782.467,35465.346)" />
      <g
         id="g2444"
         transform="matrix(19.392285,0,0,-17.606279,-16782.467,35465.346)" />
      <g
         id="g2446"
         transform="matrix(19.392285,0,0,-17.606279,-16782.467,35465.346)" />
      <g
         id="g2448"
         transform="matrix(19.392285,0,0,-17.606279,-16782.467,35465.346)" />
      <g
         id="g2450"
         transform="matrix(19.392285,0,0,-17.606279,-16782.467,35465.346)" />
      <g
         id="g2452"
         transform="matrix(19.392285,0,0,-17.606279,-16782.467,35465.346)" />
      <g
         id="g2454"
         transform="matrix(19.392285,0,0,-17.606279,-16782.467,35465.346)" />
      <g
         id="g2456"
         transform="matrix(19.392285,0,0,-17.606279,-16782.467,35465.346)" />
      <g
         id="g2458"
         transform="matrix(19.392285,0,0,-17.606279,-16782.467,35465.346)" />
      <g
         id="g2460"
         transform="matrix(19.392285,0,0,-17.606279,-16782.467,35465.346)" />
      <g
         id="g2462"
         transform="matrix(19.392285,0,0,-17.606279,-16782.467,35465.346)" />
      <g
         id="g2464"
         transform="matrix(19.392285,0,0,-17.606279,-16782.467,35465.346)" />
      <g
         id="g2466"
         transform="matrix(19.392285,0,0,-17.606279,-16782.467,35465.346)" />
      <g
         id="g2468"
         transform="matrix(19.392285,0,0,-17.606279,-16782.467,35465.346)" />
    </g>
  </g>
</svg>
