<?xml version="1.0" encoding="UTF-8" standalone="no"?>
<svg
   xmlns:dc="http://purl.org/dc/elements/1.1/"
   xmlns:cc="http://creativecommons.org/ns#"
   xmlns:rdf="http://www.w3.org/1999/02/22-rdf-syntax-ns#"
   xmlns:svg="http://www.w3.org/2000/svg"
   xmlns="http://www.w3.org/2000/svg"
   xmlns:sodipodi="http://sodipodi.sourceforge.net/DTD/sodipodi-0.dtd"
   xmlns:inkscape="http://www.inkscape.org/namespaces/inkscape"
   width="256"
   height="256"
   viewBox="0 0 67.733335 67.733338"
   version="1.1"
   id="svg1551"
   inkscape:version="1.0.1 (c497b03c, 2020-09-10)"
   sodipodi:docname="play-button.svg">
  <defs
     id="defs1545" />
  <sodipodi:namedview
     id="base"
     pagecolor="#ffffff"
     bordercolor="#666666"
     borderopacity="1.0"
     inkscape:pageopacity="0.0"
     inkscape:pageshadow="2"
     inkscape:zoom="2.4375"
     inkscape:cx="147.28205"
     inkscape:cy="144.41026"
     inkscape:document-units="mm"
     inkscape:current-layer="layer1"
     showgrid="false"
     inkscape:pagecheckerboard="true"
     inkscape:window-width="1207"
     inkscape:window-height="713"
     inkscape:window-x="221"
     inkscape:window-y="30"
     inkscape:window-maximized="0"
     units="px"
     inkscape:document-rotation="0" />
  <metadata
     id="metadata1548">
    <rdf:RDF>
      <cc:Work
         rdf:about="">
        <dc:format>image/svg+xml</dc:format>
        <dc:type
           rdf:resource="http://purl.org/dc/dcmitype/StillImage" />
        <dc:title />
        <cc:license
           rdf:resource="http://creativecommons.org/publicdomain/zero/1.0/" />
      </cc:Work>
      <cc:License
         rdf:about="http://creativecommons.org/publicdomain/zero/1.0/">
        <cc:permits
           rdf:resource="http://creativecommons.org/ns#Reproduction" />
        <cc:permits
           rdf:resource="http://creativecommons.org/ns#Distribution" />
        <cc:permits
           rdf:resource="http://creativecommons.org/ns#DerivativeWorks" />
      </cc:License>
    </rdf:RDF>
  </metadata>
  <g
     inkscape:label="Layer 1"
     inkscape:groupmode="layer"
     id="layer1"
     transform="translate(0,-229.26666)">
    <path
       id="path1228-4-9"
       style="fill:#ffffff;fill-opacity:1;stroke-width:0.553816"
       d="m 23.008167,292.96774 h 21.717 l -5.42925,-14.91721 h -10.8585 z"
       sodipodi:nodetypes="ccccc" />
    <g
       aria-label="^"
       style="font-style:normal;font-weight:normal;font-size:10.5833px;line-height:1.25;font-family:sans-serif;letter-spacing:0px;word-spacing:0px;fill:#fdffff;fill-opacity:1;stroke:none;stroke-width:0.264583"
       id="text4099-7"
       transform="matrix(0,-0.76680189,0.88244143,0,-97.360186,320.8074)" />
    <path
       id="path1228"
       style="fill:#d629d6;fill-opacity:1;stroke-width:0.303324"
       d="m 20.449646,291.90941 -15.3590627,-15.35906 14.3880417,-6.70719 7.678208,7.67821 z"
       sodipodi:nodetypes="ccccc" />
    <path
       id="path1228-0"
       style="fill:#d629d6;fill-opacity:1;stroke-width:0.303324"
       d="M 48.254708,256.42349 40.5765,248.74528 47.283687,234.35724 62.64275,249.71631 Z"
       sodipodi:nodetypes="ccccc" />
    <path
       id="path1228-4"
       style="fill:#d629d6;fill-opacity:1;stroke-width:0.454813"
       d="m 28.437417,278.05053 h 10.8585 l -2.714625,-7.4586 h -5.42925 z"
       sodipodi:nodetypes="ccccc" />
    <path
       id="path1228-02"
       style="fill:#29d6d6;fill-opacity:1;stroke-width:0.303324"
       d="m 40.5765,248.74528 7.678208,7.67821 -4.796896,2.24102 -5.119687,-5.12233 z"
       sodipodi:nodetypes="ccccc" />
    <path
       id="path1228-8"
       style="fill:#d629d6;fill-opacity:1;stroke-width:0.303324"
       d="M 33.165521,262.80524 5.0905833,249.71631 20.449646,234.35724 33.538583,262.43218 Z"
       sodipodi:nodetypes="ccccc" />
    <path
       id="path1228-1"
       style="fill:#d629d6;fill-opacity:1;stroke-width:0.303324"
       d="m 36.483396,261.9136 -1.397,-1.397 3.251729,-6.97442 5.119687,5.12233 z"
       sodipodi:nodetypes="ccccc" />
    <path
       id="path1228-2"
       style="fill:#d629d6;fill-opacity:1;stroke-width:0.303324"
       d="m 35.676417,268.10485 -0.80698,-2.25954 h -1.989666 l -0.822854,2.25954 z"
       sodipodi:nodetypes="ccccc" />
    <path
       id="path1228-6"
       style="fill:#d629d6;fill-opacity:1;stroke-width:0.303324"
       d="m 29.395208,272.72447 -5.271823,-5.11969 3.988594,-1.78858 3.071813,3.07181 z"
       sodipodi:nodetypes="ccccc" />
    <path
       id="path1228-0-1"
       style="fill:#d629d6;fill-opacity:1;stroke-width:0.303324"
       d="m 35.287479,263.41114 v -0.79375 l 28.413604,-10.34256 v 21.717 z"
       sodipodi:nodetypes="ccccc" />
    <circle
       style="fill:#29d6d6;fill-opacity:1;stroke-width:0.264583"
       id="path1020"
       cx="33.866665"
       cy="283.24167"
       r="6.3499999" />
  </g>
</svg>
